samples/DecoupledGcd.vcd
$date
2020-01-10T18:57+0000
$end
$version
0.2
$end
$comment

$end
$timescale 1ns  $end
$scope module DecoupledGcd $end
 $var wire 1 ! _GEN_22 $end
 $var wire 1 " busy $end
 $var wire 1 # input_valid $end
 $var wire 1 $ _GEN_10 $end
 $var wire 1 % _T $end
 $var wire 16 & _GEN_13 $end
 $var wire 1 ' _GEN_8 $end
 $var wire 16 ( yInitial $end
 $var wire 16 ) input_bits_value1 $end
 $var wire 1 * output_ready $end
 $var wire 16 + _GEN_12 $end
 $var wire 1 , _GEN_15 $end
 $var wire 1 - _GEN_21 $end
 $var wire 16 . output_bits_value2 $end
 $var wire 16 / y $end
 $var wire 16 0 _GEN_1 $end
 $var wire 1 1 _GEN_4 $end
 $var wire 1 2 input_ready $end
 $var wire 1 3 clock $end
 $var wire 16 4 xInitial $end
 $var wire 16 5 x $end
 $var wire 16 6 _GEN_11 $end
 $var wire 16 7 _GEN_14 $end
 $var wire 16 8 output_bits_value1 $end
 $var wire 1 9 resultValid $end
 $var wire 16 : _GEN_0 $end
 $var wire 16 ; output_bits_gcd $end
 $var wire 1 < output_valid $end
 $var wire 1 = _GEN_9 $end
 $var wire 1 > reset $end
 $var wire 1 ? _GEN_3 $end
 $var wire 16 @ input_bits_value2 $end
$upscope $end
$enddefinitions $end
$dumpvars
0%
b0000000000000000 +
0<
0'
0=
b0000000000000000 .
0>
b0000000000000000 &
0!
0"
b0000000000000000 (
0#
b0000000000000000 )
09
02
b0000000000000000 @
b0000000000000000 8
03
b0000000000000000 :
0-
b0000000000000000 ;
b0000000000000000 4
b0000000000000000 5
b0000000000000000 6
01
b0000000000000000 7
b0000000000000000 /
0*
0?
b0000000000000000 0
0,
0$
$end
#0
1%
11
12
1'
1$
1>
#1
13
#6
03
1!
1#
1*
0>
1,
#11
13
1?
1-
0%
1"
02
1=
#16
03
b0000000000000001 @
1#
1$
b0000000000000001 +
b0000000000000001 7
#21
13
0!
0?
1<
0-
01
19
0'
0=
#26
03
#31
13
1!
0<
1%
0"
11
12
09
1'
#36
03
1*
#41
13
b0000000000000001 0
1?
1-
0%
1"
b0000000000000001 .
02
1=
b0000000000000001 (
b0000000000000001 /
b0000000000000001 ;
#46
03
b0000000000000010 @
1#
1$
b0000000000000010 +
b0000000000000010 7
#51
13
0!
0?
1<
0-
01
19
0'
0=
#56
03
#61
13
1!
0<
1%
0"
11
12
09
1'
#66
03
1*
#71
13
b0000000000000010 0
1?
1-
0%
1"
b0000000000000010 .
02
1=
b0000000000000010 (
b0000000000000010 /
b0000000000000010 ;
#76
03
b0000000000000011 @
1#
1$
b0000000000000011 +
b0000000000000011 7
#81
13
0!
0?
1<
0-
01
19
0'
0=
#86
03
#91
13
1!
0<
1%
0"
11
12
09
1'
#96
03
1*
#101
13
b0000000000000011 0
1?
1-
0%
1"
b0000000000000011 .
02
1=
b0000000000000011 (
b0000000000000011 /
b0000000000000011 ;
#106
03
b0000000000000100 @
1#
1$
b0000000000000100 +
b0000000000000100 7
#111
13
0!
0?
1<
0-
01
19
0'
0=
#116
03
#121
13
1!
0<
1%
0"
11
12
09
1'
#126
03
1*
#131
13
b0000000000000100 0
1?
1-
0%
1"
b0000000000000100 .
02
1=
b0000000000000100 (
b0000000000000100 /
b0000000000000100 ;
#136
03
b0000000000000101 @
1#
1$
b0000000000000101 +
b0000000000000101 7
#141
13
0!
0?
1<
0-
01
19
0'
0=
#146
03
#151
13
1!
0<
1%
0"
11
12
09
1'
#156
03
1*
#161
13
b0000000000000101 0
1?
1-
0%
1"
b0000000000000101 .
02
1=
b0000000000000101 (
b0000000000000101 /
b0000000000000101 ;
#166
03
b0000000000000110 @
1#
1$
b0000000000000110 +
b0000000000000110 7
#171
13
0!
0?
1<
0-
01
19
0'
0=
#176
03
#181
13
1!
0<
1%
0"
11
12
09
1'
#186
03
1*
#191
13
b0000000000000110 0
1?
1-
0%
1"
b0000000000000110 .
02
1=
b0000000000000110 (
b0000000000000110 /
b0000000000000110 ;
#196
03
b0000000000000111 @
1#
1$
b0000000000000111 +
b0000000000000111 7
#201
13
0!
0?
1<
0-
01
19
0'
0=
#206
03
#211
13
1!
0<
1%
0"
11
12
09
1'
#216
03
1*
#221
13
b0000000000000111 0
1?
1-
0%
1"
b0000000000000111 .
02
1=
b0000000000000111 (
b0000000000000111 /
b0000000000000111 ;
#226
03
b0000000000001000 @
1#
1$
b0000000000001000 +
b0000000000001000 7
#231
13
0!
0?
1<
0-
01
19
0'
0=
#236
03
#241
13
1!
0<
1%
0"
11
12
09
1'
#246
03
1*
#251
13
b0000000000001000 0
1?
1-
0%
1"
b0000000000001000 .
02
1=
b0000000000001000 (
b0000000000001000 /
b0000000000001000 ;
#256
03
b0000000000001001 @
1#
1$
b0000000000001001 +
b0000000000001001 7
#261
13
0!
0?
1<
0-
01
19
0'
0=
#266
03
#271
13
1!
0<
1%
0"
11
12
09
1'
#276
03
1*
#281
13
b0000000000001001 0
1?
1-
0%
1"
b0000000000001001 .
02
1=
b0000000000001001 (
b0000000000001001 /
b0000000000001001 ;
#286
03
b0000000000001010 @
1#
1$
b0000000000001010 +
b0000000000001010 7
#291
13
0!
0?
1<
0-
01
19
0'
0=
#296
03
#301
13
1!
0<
1%
0"
11
12
09
1'
#306
03
1*
#311
13
b0000000000001010 0
1?
1-
0%
1"
b0000000000001010 .
02
1=
b0000000000001010 (
b0000000000001010 /
b0000000000001010 ;
#316
03
b0000000000000000 @
b0000000000000001 &
1#
1$
b0000000000000001 6
b0000000000000000 +
b0000000000000000 7
b0000000000000001 )
#321
13
0!
0?
1<
0-
01
19
0'
0=
#326
03
#331
13
1!
0<
1%
0"
11
12
09
1'
#336
03
1*
#341
13
1-
0%
b0000000000000001 4
b0000000000000000 .
b0000000000000001 5
1=
b0000000000000000 (
b0000000000000000 /
b0000000000000000 0
1?
1"
b0000000000000001 8
02
b0000000000000001 :
b0000000000000001 ;
#346
03
b0000000000000001 @
1#
1$
b0000000000000001 +
b0000000000000001 7
b0000000000000001 )
#351
13
0!
0?
1<
0-
01
19
0'
0=
#356
03
#361
13
1!
0<
1%
0"
11
12
09
1'
#366
03
1*
#371
13
1?
0%
1"
b0000000000000001 .
02
0'
1=
b0000000000000001 (
b0000000000000001 /
#376
03
b0000000000000010 @
1#
1$
b0000000000000010 +
b0000000000000010 7
b0000000000000001 )
#381
13
1-
1'
b0000000000000000 /
#386
03
#391
13
0!
0?
1<
0-
01
19
0'
0=
#396
03
#401
13
1!
0<
1%
0"
11
12
09
1'
#406
03
1*
#411
13
b0000000000000001 0
1?
0%
1"
b0000000000000010 .
02
0'
1=
b0000000000000010 (
b0000000000000010 /
#416
03
b0000000000000011 @
1#
1$
b0000000000000011 +
b0000000000000011 7
b0000000000000001 )
#421
13
b0000000000000000 0
b0000000000000001 /
#426
03
#431
13
1-
1'
b0000000000000000 /
#436
03
#441
13
0!
0?
1<
0-
01
19
0'
0=
#446
03
#451
13
1!
0<
1%
0"
11
12
09
1'
#456
03
1*
#461
13
b0000000000000010 0
1?
0%
1"
b0000000000000011 .
02
0'
1=
b0000000000000011 (
b0000000000000011 /
#466
03
b0000000000000100 @
1#
1$
b0000000000000100 +
b0000000000000100 7
b0000000000000001 )
#471
13
b0000000000000001 0
b0000000000000010 /
#476
03
#481
13
b0000000000000000 0
b0000000000000001 /
#486
03
#491
13
1-
1'
b0000000000000000 /
#496
03
#501
13
0!
0?
1<
0-
01
19
0'
0=
#506
03
#511
13
1!
0<
1%
0"
11
12
09
1'
#516
03
1*
#521
13
b0000000000000011 0
1?
0%
1"
b0000000000000100 .
02
0'
1=
b0000000000000100 (
b0000000000000100 /
#526
03
b0000000000000101 @
1#
1$
b0000000000000101 +
b0000000000000101 7
b0000000000000001 )
#531
13
b0000000000000010 0
b0000000000000011 /
#536
03
#541
13
b0000000000000001 0
b0000000000000010 /
#546
03
#551
13
b0000000000000000 0
b0000000000000001 /
#556
03
#561
13
1-
1'
b0000000000000000 /
#566
03
#571
13
0!
0?
1<
0-
01
19
0'
0=
#576
03
#581
13
1!
0<
1%
0"
11
12
09
1'
#586
03
1*
#591
13
b0000000000000100 0
1?
0%
1"
b0000000000000101 .
02
0'
1=
b0000000000000101 (
b0000000000000101 /
#596
03
b0000000000000110 @
1#
1$
b0000000000000110 +
b0000000000000110 7
b0000000000000001 )
#601
13
b0000000000000011 0
b0000000000000100 /
#606
03
#611
13
b0000000000000010 0
b0000000000000011 /
#616
03
#621
13
b0000000000000001 0
b0000000000000010 /
#626
03
#631
13
b0000000000000000 0
b0000000000000001 /
#636
03
#641
13
1-
1'
b0000000000000000 /
#646
03
#651
13
0!
0?
1<
0-
01
19
0'
0=
#656
03
#661
13
1!
0<
1%
0"
11
12
09
1'
#666
03
1*
#671
13
b0000000000000101 0
1?
0%
1"
b0000000000000110 .
02
0'
1=
b0000000000000110 (
b0000000000000110 /
#676
03
b0000000000000111 @
1#
1$
b0000000000000111 +
b0000000000000111 7
b0000000000000001 )
#681
13
b0000000000000100 0
b0000000000000101 /
#686
03
#691
13
b0000000000000011 0
b0000000000000100 /
#696
03
#701
13
b0000000000000010 0
b0000000000000011 /
#706
03
#711
13
b0000000000000001 0
b0000000000000010 /
#716
03
#721
13
b0000000000000000 0
b0000000000000001 /
#726
03
#731
13
1-
1'
b0000000000000000 /
#736
03
#741
13
0!
0?
1<
0-
01
19
0'
0=
#746
03
#751
13
1!
0<
1%
0"
11
12
09
1'
#756
03
1*
#761
13
b0000000000000110 0
1?
0%
1"
b0000000000000111 .
02
0'
1=
b0000000000000111 (
b0000000000000111 /
#766
03
b0000000000001000 @
1#
1$
b0000000000001000 +
b0000000000001000 7
b0000000000000001 )
#771
13
b0000000000000101 0
b0000000000000110 /
#776
03
#781
13
b0000000000000100 0
b0000000000000101 /
#786
03
#791
13
b0000000000000011 0
b0000000000000100 /
#796
03
#801
13
b0000000000000010 0
b0000000000000011 /
#806
03
#811
13
b0000000000000001 0
b0000000000000010 /
#816
03
#821
13
b0000000000000000 0
b0000000000000001 /
#826
03
#831
13
1-
1'
b0000000000000000 /
#836
03
#841
13
0!
0?
1<
0-
01
19
0'
0=
#846
03
#851
13
1!
0<
1%
0"
11
12
09
1'
#856
03
1*
#861
13
b0000000000000111 0
1?
0%
1"
b0000000000001000 .
02
0'
1=
b0000000000001000 (
b0000000000001000 /
#866
03
b0000000000001001 @
1#
1$
b0000000000001001 +
b0000000000001001 7
b0000000000000001 )
#871
13
b0000000000000110 0
b0000000000000111 /
#876
03
#881
13
b0000000000000101 0
b0000000000000110 /
#886
03
#891
13
b0000000000000100 0
b0000000000000101 /
#896
03
#901
13
b0000000000000011 0
b0000000000000100 /
#906
03
#911
13
b0000000000000010 0
b0000000000000011 /
#916
03
#921
13
b0000000000000001 0
b0000000000000010 /
#926
03
#931
13
b0000000000000000 0
b0000000000000001 /
#936
03
#941
13
1-
1'
b0000000000000000 /
#946
03
#951
13
0!
0?
1<
0-
01
19
0'
0=
#956
03
#961
13
1!
0<
1%
0"
11
12
09
1'
#966
03
1*
#971
13
b0000000000001000 0
1?
0%
1"
b0000000000001001 .
02
0'
1=
b0000000000001001 (
b0000000000001001 /
#976
03
b0000000000001010 @
1#
1$
b0000000000001010 +
b0000000000001010 7
b0000000000000001 )
#981
13
b0000000000000111 0
b0000000000001000 /
#986
03
#991
13
b0000000000000110 0
b0000000000000111 /
#996
03
#1001
13
b0000000000000101 0
b0000000000000110 /
#1006
03
#1011
13
b0000000000000100 0
b0000000000000101 /
#1016
03
#1021
13
b0000000000000011 0
b0000000000000100 /
#1026
03
#1031
13
b0000000000000010 0
b0000000000000011 /
#1036
03
#1041
13
b0000000000000001 0
b0000000000000010 /
#1046
03
#1051
13
b0000000000000000 0
b0000000000000001 /
#1056
03
#1061
13
1-
1'
b0000000000000000 /
#1066
03
#1071
13
0!
0?
1<
0-
01
19
0'
0=
#1076
03
#1081
13
1!
0<
1%
0"
11
12
09
1'
#1086
03
1*
#1091
13
b0000000000001001 0
1?
0%
1"
b0000000000001010 .
02
0'
1=
b0000000000001010 (
b0000000000001010 /
#1096
03
b0000000000000000 @
b0000000000000010 &
1#
1$
b0000000000000010 6
b0000000000000000 +
b0000000000000000 7
b0000000000000010 )
#1101
13
b0000000000001000 0
b0000000000001001 /
#1106
03
#1111
13
b0000000000000111 0
b0000000000001000 /
#1116
03
#1121
13
b0000000000000110 0
b0000000000000111 /
#1126
03
#1131
13
b0000000000000101 0
b0000000000000110 /
#1136
03
#1141
13
b0000000000000100 0
b0000000000000101 /
#1146
03
#1151
13
b0000000000000011 0
b0000000000000100 /
#1156
03
#1161
13
b0000000000000010 0
b0000000000000011 /
#1166
03
#1171
13
b0000000000000001 0
b0000000000000010 /
#1176
03
#1181
13
b0000000000000000 0
b0000000000000001 /
#1186
03
#1191
13
1-
1'
b0000000000000000 /
#1196
03
#1201
13
0!
0?
1<
0-
01
19
0'
0=
#1206
03
#1211
13
1!
0<
1%
0"
11
12
09
1'
#1216
03
1*
#1221
13
1-
0%
b0000000000000010 4
b0000000000000000 .
b0000000000000010 5
1=
b0000000000000000 (
1?
1"
b0000000000000010 8
02
b0000000000000010 :
b0000000000000010 ;
#1226
03
b0000000000000001 @
1#
1$
b0000000000000001 +
b0000000000000001 7
b0000000000000010 )
#1231
13
0!
0?
1<
0-
01
19
0'
0=
#1236
03
#1241
13
1!
0<
1%
0"
11
12
09
1'
#1246
03
1*
#1251
13
b0000000000000001 0
1?
0%
1"
b0000000000000001 .
02
0'
1=
b0000000000000001 :
b0000000000000001 (
b0000000000000001 /
#1256
03
b0000000000000010 @
1#
1$
b0000000000000010 +
b0000000000000010 7
b0000000000000010 )
#1261
13
b0000000000000000 0
b0000000000000001 5
b0000000000000001 ;
#1266
03
#1271
13
1-
1'
b0000000000000000 /
#1276
03
#1281
13
0!
0?
1<
0-
01
19
0'
0=
#1286
03
#1291
13
1!
0<
1%
0"
11
12
09
1'
#1296
03
1*
#1301
13
1?
0%
1"
b0000000000000010 .
b0000000000000010 5
02
0'
1=
b0000000000000010 :
b0000000000000010 (
b0000000000000010 /
b0000000000000010 ;
#1306
03
b0000000000000011 @
1#
1$
b0000000000000011 +
b0000000000000011 7
b0000000000000010 )
#1311
13
1-
1'
b0000000000000000 /
#1316
03
#1321
13
0!
0?
1<
0-
01
19
0'
0=
#1326
03
#1331
13
1!
0<
1%
0"
11
12
09
1'
#1336
03
1*
#1341
13
b0000000000000001 0
1?
0%
1"
b0000000000000011 .
02
0'
1=
b0000000000000011 (
b0000000000000011 /
#1346
03
b0000000000000100 @
1#
1$
b0000000000000100 +
b0000000000000100 7
b0000000000000010 )
#1351
13
b0000000000000001 :
b0000000000000001 /
#1356
03
#1361
13
b0000000000000000 0
b0000000000000001 5
b0000000000000001 ;
#1366
03
#1371
13
1-
1'
b0000000000000000 /
#1376
03
#1381
13
0!
0?
1<
0-
01
19
0'
0=
#1386
03
#1391
13
1!
0<
1%
0"
11
12
09
1'
#1396
03
1*
#1401
13
0%
b0000000000000100 .
b0000000000000010 5
0'
1=
b0000000000000100 (
b0000000000000100 /
b0000000000000010 0
1?
1"
02
b0000000000000010 :
b0000000000000010 ;
#1406
03
b0000000000000101 @
1#
1$
b0000000000000101 +
b0000000000000101 7
b0000000000000010 )
#1411
13
b0000000000000000 0
b0000000000000010 /
#1416
03
#1421
13
1-
1'
b0000000000000000 /
#1426
03
#1431
13
0!
0?
1<
0-
01
19
0'
0=
#1436
03
#1441
13
1!
0<
1%
0"
11
12
09
1'
#1446
03
1*
#1451
13
b0000000000000011 0
1?
0%
1"
b0000000000000101 .
02
0'
1=
b0000000000000101 (
b0000000000000101 /
#1456
03
b0000000000000110 @
1#
1$
b0000000000000110 +
b0000000000000110 7
b0000000000000010 )
#1461
13
b0000000000000001 0
b0000000000000011 /
#1466
03
#1471
13
b0000000000000001 :
b0000000000000001 /
#1476
03
#1481
13
b0000000000000000 0
b0000000000000001 5
b0000000000000001 ;
#1486
03
#1491
13
1-
1'
b0000000000000000 /
#1496
03
#1501
13
0!
0?
1<
0-
01
19
0'
0=
#1506
03
#1511
13
1!
0<
1%
0"
11
12
09
1'
#1516
03
1*
#1521
13
0%
b0000000000000110 .
b0000000000000010 5
0'
1=
b0000000000000110 (
b0000000000000110 /
b0000000000000100 0
1?
1"
02
b0000000000000010 :
b0000000000000010 ;
#1526
03
b0000000000000111 @
1#
1$
b0000000000000111 +
b0000000000000111 7
b0000000000000010 )
#1531
13
b0000000000000010 0
b0000000000000100 /
#1536
03
#1541
13
b0000000000000000 0
b0000000000000010 /
#1546
03
#1551
13
1-
1'
b0000000000000000 /
#1556
03
#1561
13
0!
0?
1<
0-
01
19
0'
0=
#1566
03
#1571
13
1!
0<
1%
0"
11
12
09
1'
#1576
03
1*
#1581
13
b0000000000000101 0
1?
0%
1"
b0000000000000111 .
02
0'
1=
b0000000000000111 (
b0000000000000111 /
#1586
03
b0000000000001000 @
1#
1$
b0000000000001000 +
b0000000000001000 7
b0000000000000010 )
#1591
13
b0000000000000011 0
b0000000000000101 /
#1596
03
#1601
13
b0000000000000001 0
b0000000000000011 /
#1606
03
#1611
13
b0000000000000001 :
b0000000000000001 /
#1616
03
#1621
13
b0000000000000000 0
b0000000000000001 5
b0000000000000001 ;
#1626
03
#1631
13
1-
1'
b0000000000000000 /
#1636
03
#1641
13
0!
0?
1<
0-
01
19
0'
0=
#1646
03
#1651
13
1!
0<
1%
0"
11
12
09
1'
#1656
03
1*
#1661
13
0%
b0000000000001000 .
b0000000000000010 5
0'
1=
b0000000000001000 (
b0000000000001000 /
b0000000000000110 0
1?
1"
02
b0000000000000010 :
b0000000000000010 ;
#1666
03
b0000000000001001 @
1#
1$
b0000000000001001 +
b0000000000001001 7
b0000000000000010 )
#1671
13
b0000000000000100 0
b0000000000000110 /
#1676
03
#1681
13
b0000000000000010 0
b0000000000000100 /
#1686
03
#1691
13
b0000000000000000 0
b0000000000000010 /
#1696
03
#1701
13
1-
1'
b0000000000000000 /
#1706
03
#1711
13
0!
0?
1<
0-
01
19
0'
0=
#1716
03
#1721
13
1!
0<
1%
0"
11
12
09
1'
#1726
03
1*
#1731
13
b0000000000000111 0
1?
0%
1"
b0000000000001001 .
02
0'
1=
b0000000000001001 (
b0000000000001001 /
#1736
03
b0000000000001010 @
1#
1$
b0000000000001010 +
b0000000000001010 7
b0000000000000010 )
#1741
13
b0000000000000101 0
b0000000000000111 /
#1746
03
#1751
13
b0000000000000011 0
b0000000000000101 /
#1756
03
#1761
13
b0000000000000001 0
b0000000000000011 /
#1766
03
#1771
13
b0000000000000001 :
b0000000000000001 /
#1776
03
#1781
13
b0000000000000000 0
b0000000000000001 5
b0000000000000001 ;
#1786
03
#1791
13
1-
1'
b0000000000000000 /
#1796
03
#1801
13
0!
0?
1<
0-
01
19
0'
0=
#1806
03
#1811
13
1!
0<
1%
0"
11
12
09
1'
#1816
03
1*
#1821
13
0%
b0000000000001010 .
b0000000000000010 5
0'
1=
b0000000000001010 (
b0000000000001010 /
b0000000000001000 0
1?
1"
02
b0000000000000010 :
b0000000000000010 ;
#1826
03
b0000000000000000 @
b0000000000000011 &
1#
1$
b0000000000000011 6
b0000000000000000 +
b0000000000000000 7
b0000000000000011 )
#1831
13
b0000000000000110 0
b0000000000001000 /
#1836
03
#1841
13
b0000000000000100 0
b0000000000000110 /
#1846
03
#1851
13
b0000000000000010 0
b0000000000000100 /
#1856
03
#1861
13
b0000000000000000 0
b0000000000000010 /
#1866
03
#1871
13
1-
1'
b0000000000000000 /
#1876
03
#1881
13
0!
0?
1<
0-
01
19
0'
0=
#1886
03
#1891
13
1!
0<
1%
0"
11
12
09
1'
#1896
03
1*
#1901
13
1-
0%
b0000000000000011 4
b0000000000000000 .
b0000000000000011 5
1=
b0000000000000000 (
1?
1"
b0000000000000011 8
02
b0000000000000011 :
b0000000000000011 ;
#1906
03
b0000000000000001 @
1#
1$
b0000000000000001 +
b0000000000000001 7
b0000000000000011 )
#1911
13
0!
0?
1<
0-
01
19
0'
0=
#1916
03
#1921
13
1!
0<
1%
0"
11
12
09
1'
#1926
03
1*
#1931
13
b0000000000000001 0
1?
0%
1"
b0000000000000001 .
02
0'
1=
b0000000000000010 :
b0000000000000001 (
b0000000000000001 /
#1936
03
b0000000000000010 @
1#
1$
b0000000000000010 +
b0000000000000010 7
b0000000000000011 )
#1941
13
b0000000000000010 5
b0000000000000001 :
b0000000000000010 ;
#1946
03
#1951
13
b0000000000000000 0
b0000000000000001 5
b0000000000000001 ;
#1956
03
#1961
13
1-
1'
b0000000000000000 /
#1966
03
#1971
13
0!
0?
1<
0-
01
19
0'
0=
#1976
03
#1981
13
1!
0<
1%
0"
11
12
09
1'
#1986
03
1*
#1991
13
b0000000000000010 0
1?
0%
1"
b0000000000000010 .
b0000000000000011 5
02
0'
1=
b0000000000000010 (
b0000000000000010 /
b0000000000000011 ;
#1996
03
b0000000000000011 @
1#
1$
b0000000000000011 +
b0000000000000011 7
b0000000000000011 )
#2001
13
b0000000000000001 0
b0000000000000001 5
b0000000000000001 ;
#2006
03
#2011
13
b0000000000000000 0
b0000000000000001 /
#2016
03
#2021
13
1-
1'
b0000000000000000 /
#2026
03
#2031
13
0!
0?
1<
0-
01
19
0'
0=
#2036
03
#2041
13
1!
0<
1%
0"
11
12
09
1'
#2046
03
1*
#2051
13
1?
0%
1"
b0000000000000011 .
b0000000000000011 5
02
0'
1=
b0000000000000011 :
b0000000000000011 (
b0000000000000011 /
b0000000000000011 ;
#2056
03
b0000000000000100 @
1#
1$
b0000000000000100 +
b0000000000000100 7
b0000000000000011 )
#2061
13
1-
1'
b0000000000000000 /
#2066
03
#2071
13
0!
0?
1<
0-
01
19
0'
0=
#2076
03
#2081
13
1!
0<
1%
0"
11
12
09
1'
#2086
03
1*
#2091
13
b0000000000000001 0
1?
0%
1"
b0000000000000100 .
02
0'
1=
b0000000000000100 (
b0000000000000100 /
#2096
03
b0000000000000101 @
1#
1$
b0000000000000101 +
b0000000000000101 7
b0000000000000011 )
#2101
13
b0000000000000010 :
b0000000000000001 /
#2106
03
#2111
13
b0000000000000010 5
b0000000000000001 :
b0000000000000010 ;
#2116
03
#2121
13
b0000000000000000 0
b0000000000000001 5
b0000000000000001 ;
#2126
03
#2131
13
1-
1'
b0000000000000000 /
#2136
03
#2141
13
0!
0?
1<
0-
01
19
0'
0=
#2146
03
#2151
13
1!
0<
1%
0"
11
12
09
1'
#2156
03
1*
#2161
13
0%
b0000000000000101 .
b0000000000000011 5
0'
1=
b0000000000000101 (
b0000000000000101 /
b0000000000000010 0
1?
1"
02
b0000000000000011 :
b0000000000000011 ;
#2166
03
b0000000000000110 @
1#
1$
b0000000000000110 +
b0000000000000110 7
b0000000000000011 )
#2171
13
b0000000000000001 :
b0000000000000010 /
#2176
03
#2181
13
b0000000000000001 0
b0000000000000001 5
b0000000000000001 ;
#2186
03
#2191
13
b0000000000000000 0
b0000000000000001 /
#2196
03
#2201
13
1-
1'
b0000000000000000 /
#2206
03
#2211
13
0!
0?
1<
0-
01
19
0'
0=
#2216
03
#2221
13
1!
0<
1%
0"
11
12
09
1'
#2226
03
1*
#2231
13
0%
b0000000000000110 .
b0000000000000011 5
0'
1=
b0000000000000110 (
b0000000000000110 /
b0000000000000011 0
1?
1"
02
b0000000000000011 :
b0000000000000011 ;
#2236
03
b0000000000000000 @
0#
0$
b0000000000000000 )
#2241
13
b0000000000000000 0
b0000000000000011 +
b0000000000000011 /
#2246
03
#2251
13
1-
1'
b0000000000000000 +
b0000000000000000 /
#2256
03
#2261
13
0!
0?
1<
0-
01
19
0'
0=
#2266
03
#2271
13
0<
1%
0"
11
12
09
1$
1'
0,
#2276
03
1*
#2281
13
#2286
03
#2291
13
#2296
03
#2301
13
#2306
03
#2311
13
#2316
03
#2321
13
#2326
03
#2331
13
#2336
03
#2341
13
#2346
03
1!
b0000000000000111 @
1#
b0000000000000111 +
b0000000000000111 7
1,
b0000000000000011 )
#2351
13
b0000000000000100 0
1?
0%
1"
b0000000000000111 .
02
0'
1=
b0000000000000111 (
b0000000000000111 /
#2356
03
b0000000000001000 @
1#
1$
b0000000000001000 +
b0000000000001000 7
b0000000000000011 )
#2361
13
b0000000000000001 0
b0000000000000100 /
#2366
03
#2371
13
b0000000000000010 :
b0000000000000001 /
#2376
03
#2381
13
b0000000000000010 5
b0000000000000001 :
b0000000000000010 ;
#2386
03
#2391
13
b0000000000000000 0
b0000000000000001 5
b0000000000000001 ;
#2396
03
#2401
13
1-
1'
b0000000000000000 /
#2406
03
#2411
13
0!
0?
1<
0-
01
19
0'
0=
#2416
03
#2421
13
1!
0<
1%
0"
11
12
09
1'
#2426
03
1*
#2431
13
0%
b0000000000001000 .
b0000000000000011 5
0'
1=
b0000000000001000 (
b0000000000001000 /
b0000000000000101 0
1?
1"
02
b0000000000000011 :
b0000000000000011 ;
#2436
03
b0000000000001001 @
1#
1$
b0000000000001001 +
b0000000000001001 7
b0000000000000011 )
#2441
13
b0000000000000010 0
b0000000000000101 /
#2446
03
#2451
13
b0000000000000001 :
b0000000000000010 /
#2456
03
#2461
13
b0000000000000001 0
b0000000000000001 5
b0000000000000001 ;
#2466
03
#2471
13
b0000000000000000 0
b0000000000000001 /
#2476
03
#2481
13
1-
1'
b0000000000000000 /
#2486
03
#2491
13
0!
0?
1<
0-
01
19
0'
0=
#2496
03
#2501
13
1!
0<
1%
0"
11
12
09
1'
#2506
03
1*
#2511
13
0%
b0000000000001001 .
b0000000000000011 5
0'
1=
b0000000000001001 (
b0000000000001001 /
b0000000000000110 0
1?
1"
02
b0000000000000011 :
b0000000000000011 ;
#2516
03
b0000000000001010 @
1#
1$
b0000000000001010 +
b0000000000001010 7
b0000000000000011 )
#2521
13
b0000000000000011 0
b0000000000000110 /
#2526
03
#2531
13
b0000000000000000 0
b0000000000000011 /
#2536
03
#2541
13
1-
1'
b0000000000000000 /
#2546
03
#2551
13
0!
0?
1<
0-
01
19
0'
0=
#2556
03
#2561
13
1!
0<
1%
0"
11
12
09
1'
#2566
03
1*
#2571
13
b0000000000000111 0
1?
0%
1"
b0000000000001010 .
02
0'
1=
b0000000000001010 (
b0000000000001010 /
#2576
03
b0000000000000000 @
b0000000000000100 &
1#
1$
b0000000000000100 6
b0000000000000000 +
b0000000000000000 7
b0000000000000100 )
#2581
13
b0000000000000100 0
b0000000000000111 /
#2586
03
#2591
13
b0000000000000001 0
b0000000000000100 /
#2596
03
#2601
13
b0000000000000010 :
b0000000000000001 /
#2606
03
#2611
13
b0000000000000010 5
b0000000000000001 :
b0000000000000010 ;
#2616
03
#2621
13
b0000000000000000 0
b0000000000000001 5
b0000000000000001 ;
#2626
03
#2631
13
1-
1'
b0000000000000000 /
#2636
03
#2641
13
0!
0?
1<
0-
01
19
0'
0=
#2646
03
#2651
13
1!
0<
1%
0"
11
12
09
1'
#2656
03
1*
#2661
13
1-
0%
b0000000000000100 4
b0000000000000000 .
b0000000000000100 5
1=
b0000000000000000 (
1?
1"
b0000000000000100 8
02
b0000000000000100 :
b0000000000000100 ;
#2666
03
b0000000000000001 @
1#
1$
b0000000000000001 +
b0000000000000001 7
b0000000000000100 )
#2671
13
0!
0?
1<
0-
01
19
0'
0=
#2676
03
#2681
13
1!
0<
1%
0"
11
12
09
1'
#2686
03
1*
#2691
13
b0000000000000001 0
1?
0%
1"
b0000000000000001 .
02
0'
1=
b0000000000000011 :
b0000000000000001 (
b0000000000000001 /
#2696
03
b0000000000000010 @
1#
1$
b0000000000000010 +
b0000000000000010 7
b0000000000000100 )
#2701
13
b0000000000000011 5
b0000000000000010 :
b0000000000000011 ;
#2706
03
#2711
13
b0000000000000010 5
b0000000000000001 :
b0000000000000010 ;
#2716
03
#2721
13
b0000000000000000 0
b0000000000000001 5
b0000000000000001 ;
#2726
03
#2731
13
1-
1'
b0000000000000000 /
#2736
03
#2741
13
0!
0?
1<
0-
01
19
0'
0=
#2746
03
#2751
13
1!
0<
1%
0"
11
12
09
1'
#2756
03
1*
#2761
13
0%
b0000000000000010 .
b0000000000000100 5
0'
1=
b0000000000000010 (
b0000000000000010 /
b0000000000000010 0
1?
1"
02
b0000000000000010 :
b0000000000000100 ;
#2766
03
b0000000000000011 @
1#
1$
b0000000000000011 +
b0000000000000011 7
b0000000000000100 )
#2771
13
b0000000000000000 0
b0000000000000010 5
b0000000000000010 ;
#2776
03
#2781
13
1-
1'
b0000000000000000 /
#2786
03
#2791
13
0!
0?
1<
0-
01
19
0'
0=
#2796
03
#2801
13
1!
0<
1%
0"
11
12
09
1'
#2806
03
1*
#2811
13
0%
b0000000000000011 .
b0000000000000100 5
0'
1=
b0000000000000011 (
b0000000000000011 /
b0000000000000011 0
1?
1"
02
b0000000000000001 :
b0000000000000100 ;
#2816
03
b0000000000000100 @
1#
1$
b0000000000000100 +
b0000000000000100 7
b0000000000000100 )
#2821
13
b0000000000000010 0
b0000000000000001 5
b0000000000000001 ;
#2826
03
#2831
13
b0000000000000001 0
b0000000000000010 /
#2836
03
#2841
13
b0000000000000000 0
b0000000000000001 /
#2846
03
#2851
13
1-
1'
b0000000000000000 /
#2856
03
#2861
13
0!
0?
1<
0-
01
19
0'
0=
#2866
03
#2871
13
1!
0<
1%
0"
11
12
09
1'
#2876
03
1*
#2881
13
1?
0%
1"
b0000000000000100 .
b0000000000000100 5
02
0'
1=
b0000000000000100 :
b0000000000000100 (
b0000000000000100 /
b0000000000000100 ;
#2886
03
b0000000000000101 @
1#
1$
b0000000000000101 +
b0000000000000101 7
b0000000000000100 )
#2891
13
1-
1'
b0000000000000000 /
#2896
03
#2901
13
0!
0?
1<
0-
01
19
0'
0=
#2906
03
