samples/FpAdder.vcd
$date
2020-01-26T18:32+0000
$end
$version
0.2
$end
$comment

$end
$timescale 1ns  $end
$scope module FpAdder $end
 $var wire 9 ! _T $end
 $var wire 9 " io_c $end
 $var wire 8 # io_b $end
 $var wire 1 $ clock $end
 $var wire 8 % io_a $end
 $var wire 1 & reset $end
$upscope $end
$enddefinitions $end
$dumpvars
0&
b00000000 %
b000000000 !
b00000000 #
b000000000 "
0$
$end
#0
1&
#1
1$
#6
b000000010 !
b00000001 %
b000000010 "
0&
b00000001 #
0$
#11
1$
#16
b000000011 !
b000000011 "
b00000010 #
0$
#21
1$
#26
b000000100 !
b000000100 "
b00000011 #
0$
#31
1$
#36
b000000101 !
b000000101 "
b00000100 #
0$
#41
1$
#46
b000000110 !
b000000110 "
b00000101 #
0$
#51
1$
#56
b000000111 !
b000000111 "
b00000110 #
0$
#61
1$
#66
b000001000 !
b000001000 "
b00000111 #
0$
#71
1$
#76
b000001001 !
b000001001 "
b00001000 #
0$
#81
1$
#86
b000001010 !
b000001010 "
b00001001 #
0$
#91
1$
#96
b000001011 !
b000001011 "
b00001010 #
0$
#101
1$
#106
b000001100 !
b000001100 "
b00001011 #
0$
#111
1$
#116
b000001101 !
b000001101 "
b00001100 #
0$
#121
1$
#126
b000001110 !
b000001110 "
b00001101 #
0$
#131
1$
#136
b000001111 !
b000001111 "
b00001110 #
0$
#141
1$
#146
b000010000 !
b000010000 "
b00001111 #
0$
#151
1$
#156
b000010001 !
b000010001 "
b00010000 #
0$
#161
1$
#166
b000010010 !
b000010010 "
b00010001 #
0$
#171
1$
#176
b000010011 !
b000010011 "
b00010010 #
0$
#181
1$
#186
b000010100 !
b000010100 "
b00010011 #
0$
#191
1$
#196
b000010101 !
b000010101 "
b00010100 #
0$
#201
1$
#206
b000010110 !
b000010110 "
b00010101 #
0$
#211
1$
#216
b000010111 !
b000010111 "
b00010110 #
0$
#221
1$
#226
b000011000 !
b000011000 "
b00010111 #
0$
#231
1$
#236
b000011001 !
b000011001 "
b00011000 #
0$
#241
1$
#246
b000000011 !
b00000010 %
b000000011 "
b00000001 #
0$
#251
1$
#256
b000000100 !
b000000100 "
b00000010 #
0$
#261
1$
#266
b000000101 !
b000000101 "
b00000011 #
0$
#271
1$
#276
b000000110 !
b000000110 "
b00000100 #
0$
#281
1$
#286
b000000111 !
b000000111 "
b00000101 #
0$
#291
1$
#296
b000001000 !
b000001000 "
b00000110 #
0$
#301
1$
#306
b000001001 !
b000001001 "
b00000111 #
0$
#311
1$
#316
b000001010 !
b000001010 "
b00001000 #
0$
#321
1$
#326
b000001011 !
b000001011 "
b00001001 #
0$
#331
1$
#336
b000001100 !
b000001100 "
b00001010 #
0$
#341
1$
#346
b000001101 !
b000001101 "
b00001011 #
0$
#351
1$
#356
b000001110 !
b000001110 "
b00001100 #
0$
#361
1$
#366
b000001111 !
b000001111 "
b00001101 #
0$
#371
1$
#376
b000010000 !
b000010000 "
b00001110 #
0$
#381
1$
#386
b000010001 !
b000010001 "
b00001111 #
0$
#391
1$
#396
b000010010 !
b000010010 "
b00010000 #
0$
#401
1$
#406
b000010011 !
b000010011 "
b00010001 #
0$
#411
1$
#416
b000010100 !
b000010100 "
b00010010 #
0$
#421
1$
#426
b000010101 !
b000010101 "
b00010011 #
0$
#431
1$
#436
b000010110 !
b000010110 "
b00010100 #
0$
#441
1$
#446
b000010111 !
b000010111 "
b00010101 #
0$
#451
1$
#456
b000011000 !
b000011000 "
b00010110 #
0$
#461
1$
#466
b000011001 !
b000011001 "
b00010111 #
0$
#471
1$
#476
b000011010 !
b000011010 "
b00011000 #
0$
#481
1$
#486
b000000100 !
b00000011 %
b000000100 "
b00000001 #
0$
#491
1$
#496
b000000101 !
b000000101 "
b00000010 #
0$
#501
1$
#506
b000000110 !
b000000110 "
b00000011 #
0$
#511
1$
#516
b000000111 !
b000000111 "
b00000100 #
0$
#521
1$
#526
b000001000 !
b000001000 "
b00000101 #
0$
#531
1$
#536
b000001001 !
b000001001 "
b00000110 #
0$
#541
1$
#546
b000001010 !
b000001010 "
b00000111 #
0$
#551
1$
#556
b000001011 !
b000001011 "
b00001000 #
0$
#561
1$
#566
b000001100 !
b000001100 "
b00001001 #
0$
#571
1$
#576
b000001101 !
b000001101 "
b00001010 #
0$
#581
1$
#586
b000001110 !
b000001110 "
b00001011 #
0$
#591
1$
#596
b000001111 !
b000001111 "
b00001100 #
0$
#601
1$
#606
b000010000 !
b000010000 "
b00001101 #
0$
#611
1$
#616
b000010001 !
b000010001 "
b00001110 #
0$
#621
1$
#626
b000010010 !
b000010010 "
b00001111 #
0$
#631
1$
#636
b000010011 !
b000010011 "
b00010000 #
0$
#641
1$
#646
b000010100 !
b000010100 "
b00010001 #
0$
#651
1$
#656
b000010101 !
b000010101 "
b00010010 #
0$
#661
1$
#666
b000010110 !
b000010110 "
b00010011 #
0$
#671
1$
#676
b000010111 !
b000010111 "
b00010100 #
0$
#681
1$
#686
b000011000 !
b000011000 "
b00010101 #
0$
#691
1$
#696
b000011001 !
b000011001 "
b00010110 #
0$
#701
1$
#706
b000011010 !
b000011010 "
b00010111 #
0$
#711
1$
#716
b000011011 !
b000011011 "
b00011000 #
0$
#721
1$
#726
b000000101 !
b00000100 %
b000000101 "
b00000001 #
0$
#731
1$
#736
b000000110 !
b000000110 "
b00000010 #
0$
#741
1$
#746
b000000111 !
b000000111 "
b00000011 #
0$
#751
1$
#756
b000001000 !
b000001000 "
b00000100 #
0$
#761
1$
#766
b000001001 !
b000001001 "
b00000101 #
0$
#771
1$
#776
b000001010 !
b000001010 "
b00000110 #
0$
#781
1$
#786
b000001011 !
b000001011 "
b00000111 #
0$
#791
1$
#796
b000001100 !
b000001100 "
b00001000 #
0$
#801
1$
#806
b000001101 !
b000001101 "
b00001001 #
0$
#811
1$
#816
b000001110 !
b000001110 "
b00001010 #
0$
#821
1$
#826
b000001111 !
b000001111 "
b00001011 #
0$
#831
1$
#836
b000010000 !
b000010000 "
b00001100 #
0$
#841
1$
#846
b000010001 !
b000010001 "
b00001101 #
0$
#851
1$
#856
b000010010 !
b000010010 "
b00001110 #
0$
#861
1$
#866
b000010011 !
b000010011 "
b00001111 #
0$
#871
1$
#876
b000010100 !
b000010100 "
b00010000 #
0$
#881
1$
#886
b000010101 !
b000010101 "
b00010001 #
0$
#891
1$
#896
b000010110 !
b000010110 "
b00010010 #
0$
#901
1$
#906
b000010111 !
b000010111 "
b00010011 #
0$
#911
1$
#916
b000011000 !
b000011000 "
b00010100 #
0$
#921
1$
#926
b000011001 !
b000011001 "
b00010101 #
0$
#931
1$
#936
b000011010 !
b000011010 "
b00010110 #
0$
#941
1$
#946
b000011011 !
b000011011 "
b00010111 #
0$
#951
1$
#956
b000011100 !
b000011100 "
b00011000 #
0$
#961
1$
#966
b000000110 !
b00000101 %
b000000110 "
b00000001 #
0$
#971
1$
#976
b000000111 !
b000000111 "
b00000010 #
0$
#981
1$
#986
b000001000 !
b000001000 "
b00000011 #
0$
#991
1$
#996
b000001001 !
b000001001 "
b00000100 #
0$
#1001
1$
#1006
b000001010 !
b000001010 "
b00000101 #
0$
#1011
1$
#1016
b000001011 !
b000001011 "
b00000110 #
0$
#1021
1$
#1026
b000001100 !
b000001100 "
b00000111 #
0$
#1031
1$
#1036
b000001101 !
b000001101 "
b00001000 #
0$
#1041
1$
#1046
b000001110 !
b000001110 "
b00001001 #
0$
#1051
1$
#1056
b000001111 !
b000001111 "
b00001010 #
0$
#1061
1$
#1066
b000010000 !
b000010000 "
b00001011 #
0$
#1071
1$
#1076
b000010001 !
b000010001 "
b00001100 #
0$
#1081
1$
#1086
b000010010 !
b000010010 "
b00001101 #
0$
#1091
1$
#1096
b000010011 !
b000010011 "
b00001110 #
0$
#1101
1$
#1106
b000010100 !
b000010100 "
b00001111 #
0$
#1111
1$
#1116
b000010101 !
b000010101 "
b00010000 #
0$
#1121
1$
#1126
b000010110 !
b000010110 "
b00010001 #
0$
#1131
1$
#1136
b000010111 !
b000010111 "
b00010010 #
0$
#1141
1$
#1146
b000011000 !
b000011000 "
b00010011 #
0$
#1151
1$
#1156
b000011001 !
b000011001 "
b00010100 #
0$
#1161
1$
#1166
b000011010 !
b000011010 "
b00010101 #
0$
#1171
1$
#1176
b000011011 !
b000011011 "
b00010110 #
0$
#1181
1$
#1186
b000011100 !
b000011100 "
b00010111 #
0$
#1191
1$
#1196
b000011101 !
b000011101 "
b00011000 #
0$
#1201
1$
#1206
b000000111 !
b00000110 %
b000000111 "
b00000001 #
0$
#1211
1$
#1216
b000001000 !
b000001000 "
b00000010 #
0$
#1221
1$
#1226
b000001001 !
b000001001 "
b00000011 #
0$
#1231
1$
#1236
b000001010 !
b000001010 "
b00000100 #
0$
#1241
1$
#1246
b000001011 !
b000001011 "
b00000101 #
0$
#1251
1$
#1256
b000001100 !
b000001100 "
b00000110 #
0$
#1261
1$
#1266
b000001101 !
b000001101 "
b00000111 #
0$
#1271
1$
#1276
b000001110 !
b000001110 "
b00001000 #
0$
#1281
1$
#1286
b000001111 !
b000001111 "
b00001001 #
0$
#1291
1$
#1296
b000010000 !
b000010000 "
b00001010 #
0$
#1301
1$
#1306
b000010001 !
b000010001 "
b00001011 #
0$
#1311
1$
#1316
b000010010 !
b000010010 "
b00001100 #
0$
#1321
1$
#1326
b000010011 !
b000010011 "
b00001101 #
0$
#1331
1$
#1336
b000010100 !
b000010100 "
b00001110 #
0$
#1341
1$
#1346
b000010101 !
b000010101 "
b00001111 #
0$
#1351
1$
#1356
b000010110 !
b000010110 "
b00010000 #
0$
#1361
1$
#1366
b000010111 !
b000010111 "
b00010001 #
0$
#1371
1$
#1376
b000011000 !
b000011000 "
b00010010 #
0$
#1381
1$
#1386
b000011001 !
b000011001 "
b00010011 #
0$
#1391
1$
#1396
b000011010 !
b000011010 "
b00010100 #
0$
#1401
1$
#1406
b000011011 !
b000011011 "
b00010101 #
0$
#1411
1$
#1416
b000011100 !
b000011100 "
b00010110 #
0$
#1421
1$
#1426
b000011101 !
b000011101 "
b00010111 #
0$
#1431
1$
#1436
b000011110 !
b000011110 "
b00011000 #
0$
#1441
1$
#1446
b000001000 !
b00000111 %
b000001000 "
b00000001 #
0$
#1451
1$
#1456
b000001001 !
b000001001 "
b00000010 #
0$
#1461
1$
#1466
b000001010 !
b000001010 "
b00000011 #
0$
#1471
1$
#1476
b000001011 !
b000001011 "
b00000100 #
0$
#1481
1$
#1486
b000001100 !
b000001100 "
b00000101 #
0$
#1491
1$
#1496
b000001101 !
b000001101 "
b00000110 #
0$
#1501
1$
#1506
b000001110 !
b000001110 "
b00000111 #
0$
#1511
1$
#1516
b000001111 !
b000001111 "
b00001000 #
0$
#1521
1$
#1526
b000010000 !
b000010000 "
b00001001 #
0$
#1531
1$
#1536
b000010001 !
b000010001 "
b00001010 #
0$
#1541
1$
#1546
b000010010 !
b000010010 "
b00001011 #
0$
#1551
1$
#1556
b000010011 !
b000010011 "
b00001100 #
0$
#1561
1$
#1566
b000010100 !
b000010100 "
b00001101 #
0$
#1571
1$
#1576
b000010101 !
b000010101 "
b00001110 #
0$
#1581
1$
#1586
b000010110 !
b000010110 "
b00001111 #
0$
#1591
1$
#1596
b000010111 !
b000010111 "
b00010000 #
0$
#1601
1$
#1606
b000011000 !
b000011000 "
b00010001 #
0$
#1611
1$
#1616
b000011001 !
b000011001 "
b00010010 #
0$
#1621
1$
#1626
b000011010 !
b000011010 "
b00010011 #
0$
#1631
1$
#1636
b000011011 !
b000011011 "
b00010100 #
0$
#1641
1$
#1646
b000011100 !
b000011100 "
b00010101 #
0$
#1651
1$
#1656
b000011101 !
b000011101 "
b00010110 #
0$
#1661
1$
#1666
b000011110 !
b000011110 "
b00010111 #
0$
#1671
1$
#1676
b000011111 !
b000011111 "
b00011000 #
0$
#1681
1$
#1686
b000001001 !
b00001000 %
b000001001 "
b00000001 #
0$
#1691
1$
#1696
b000001010 !
b000001010 "
b00000010 #
0$
#1701
1$
#1706
b000001011 !
b000001011 "
b00000011 #
0$
#1711
1$
#1716
b000001100 !
b000001100 "
b00000100 #
0$
#1721
1$
#1726
b000001101 !
b000001101 "
b00000101 #
0$
#1731
1$
#1736
b000001110 !
b000001110 "
b00000110 #
0$
#1741
1$
#1746
b000001111 !
b000001111 "
b00000111 #
0$
#1751
1$
#1756
b000010000 !
b000010000 "
b00001000 #
0$
#1761
1$
#1766
b000010001 !
b000010001 "
b00001001 #
0$
#1771
1$
#1776
b000010010 !
b000010010 "
b00001010 #
0$
#1781
1$
#1786
b000010011 !
b000010011 "
b00001011 #
0$
#1791
1$
#1796
b000010100 !
b000010100 "
b00001100 #
0$
#1801
1$
#1806
b000010101 !
b000010101 "
b00001101 #
0$
#1811
1$
#1816
b000010110 !
b000010110 "
b00001110 #
0$
#1821
1$
#1826
b000010111 !
b000010111 "
b00001111 #
0$
#1831
1$
#1836
b000011000 !
b000011000 "
b00010000 #
0$
#1841
1$
#1846
b000011001 !
b000011001 "
b00010001 #
0$
#1851
1$
#1856
b000011010 !
b000011010 "
b00010010 #
0$
#1861
1$
#1866
b000011011 !
b000011011 "
b00010011 #
0$
#1871
1$
#1876
b000011100 !
b000011100 "
b00010100 #
0$
#1881
1$
#1886
b000011101 !
b000011101 "
b00010101 #
0$
#1891
1$
#1896
b000011110 !
b000011110 "
b00010110 #
0$
#1901
1$
#1906
b000011111 !
b000011111 "
b00010111 #
0$
#1911
1$
#1916
b000100000 !
b000100000 "
b00011000 #
0$
#1921
1$
#1926
b000001010 !
b00001001 %
b000001010 "
b00000001 #
0$
#1931
1$
#1936
b000001011 !
b000001011 "
b00000010 #
0$
#1941
1$
#1946
b000001100 !
b000001100 "
b00000011 #
0$
#1951
1$
#1956
b000001101 !
b000001101 "
b00000100 #
0$
#1961
1$
#1966
b000001110 !
b000001110 "
b00000101 #
0$
#1971
1$
#1976
b000001111 !
b000001111 "
b00000110 #
0$
#1981
1$
#1986
b000010000 !
b000010000 "
b00000111 #
0$
#1991
1$
#1996
b000010001 !
b000010001 "
b00001000 #
0$
#2001
1$
#2006
b000010010 !
b000010010 "
b00001001 #
0$
#2011
1$
#2016
b000010011 !
b000010011 "
b00001010 #
0$
#2021
1$
#2026
b000010100 !
b000010100 "
b00001011 #
0$
#2031
1$
#2036
b000010101 !
b000010101 "
b00001100 #
0$
#2041
1$
#2046
b000010110 !
b000010110 "
b00001101 #
0$
#2051
1$
#2056
b000010111 !
b000010111 "
b00001110 #
0$
#2061
1$
#2066
b000011000 !
b000011000 "
b00001111 #
0$
#2071
1$
#2076
b000011001 !
b000011001 "
b00010000 #
0$
#2081
1$
#2086
b000011010 !
b000011010 "
b00010001 #
0$
#2091
1$
#2096
b000011011 !
b000011011 "
b00010010 #
0$
#2101
1$
#2106
b000011100 !
b000011100 "
b00010011 #
0$
#2111
1$
#2116
b000011101 !
b000011101 "
b00010100 #
0$
#2121
1$
#2126
b000011110 !
b000011110 "
b00010101 #
0$
#2131
1$
#2136
b000011111 !
b000011111 "
b00010110 #
0$
#2141
1$
#2146
b000100000 !
b000100000 "
b00010111 #
0$
#2151
1$
#2156
b000100001 !
b000100001 "
b00011000 #
0$
#2161
1$
#2166
b000001011 !
b00001010 %
b000001011 "
b00000001 #
0$
#2171
1$
#2176
b000001100 !
b000001100 "
b00000010 #
0$
#2181
1$
#2186
b000001101 !
b000001101 "
b00000011 #
0$
#2191
1$
#2196
b000001110 !
b000001110 "
b00000100 #
0$
#2201
1$
#2206
b000001111 !
b000001111 "
b00000101 #
0$
#2211
1$
#2216
b000010000 !
b000010000 "
b00000110 #
0$
#2221
1$
#2226
b000010001 !
b000010001 "
b00000111 #
0$
#2231
1$
#2236
b000010010 !
b000010010 "
b00001000 #
0$
#2241
1$
#2246
b000010011 !
b000010011 "
b00001001 #
0$
#2251
1$
#2256
b000010100 !
b000010100 "
b00001010 #
0$
#2261
1$
#2266
b000010101 !
b000010101 "
b00001011 #
0$
#2271
1$
#2276
b000010110 !
b000010110 "
b00001100 #
0$
#2281
1$
#2286
b000010111 !
b000010111 "
b00001101 #
0$
#2291
1$
#2296
b000011000 !
b000011000 "
b00001110 #
0$
#2301
1$
#2306
b000011001 !
b000011001 "
b00001111 #
0$
#2311
1$
#2316
b000011010 !
b000011010 "
b00010000 #
0$
#2321
1$
#2326
b000011011 !
b000011011 "
b00010001 #
0$
#2331
1$
#2336
b000011100 !
b000011100 "
b00010010 #
0$
#2341
1$
#2346
b000011101 !
b000011101 "
b00010011 #
0$
#2351
1$
#2356
b000011110 !
b000011110 "
b00010100 #
0$
#2361
1$
#2366
b000011111 !
b000011111 "
b00010101 #
0$
#2371
1$
#2376
b000100000 !
b000100000 "
b00010110 #
0$
#2381
1$
#2386
b000100001 !
b000100001 "
b00010111 #
0$
#2391
1$
#2396
b000100010 !
b000100010 "
b00011000 #
0$
#2401
1$
#2406
b000001100 !
b00001011 %
b000001100 "
b00000001 #
0$
#2411
1$
#2416
b000001101 !
b000001101 "
b00000010 #
0$
#2421
1$
#2426
b000001110 !
b000001110 "
b00000011 #
0$
#2431
1$
#2436
b000001111 !
b000001111 "
b00000100 #
0$
#2441
1$
#2446
b000010000 !
b000010000 "
b00000101 #
0$
#2451
1$
#2456
b000010001 !
b000010001 "
b00000110 #
0$
#2461
1$
#2466
b000010010 !
b000010010 "
b00000111 #
0$
#2471
1$
#2476
b000010011 !
b000010011 "
b00001000 #
0$
#2481
1$
#2486
b000010100 !
b000010100 "
b00001001 #
0$
#2491
1$
#2496
b000010101 !
b000010101 "
b00001010 #
0$
#2501
1$
#2506
b000010110 !
b000010110 "
b00001011 #
0$
#2511
1$
#2516
b000010111 !
b000010111 "
b00001100 #
0$
#2521
1$
#2526
b000011000 !
b000011000 "
b00001101 #
0$
#2531
1$
#2536
b000011001 !
b000011001 "
b00001110 #
0$
#2541
1$
#2546
b000011010 !
b000011010 "
b00001111 #
0$
#2551
1$
#2556
b000011011 !
b000011011 "
b00010000 #
0$
#2561
1$
#2566
b000011100 !
b000011100 "
b00010001 #
0$
#2571
1$
#2576
b000011101 !
b000011101 "
b00010010 #
0$
#2581
1$
#2586
b000011110 !
b000011110 "
b00010011 #
0$
#2591
1$
#2596
b000011111 !
b000011111 "
b00010100 #
0$
#2601
1$
#2606
b000100000 !
b000100000 "
b00010101 #
0$
#2611
1$
#2616
b000100001 !
b000100001 "
b00010110 #
0$
#2621
1$
#2626
b000100010 !
b000100010 "
b00010111 #
0$
#2631
1$
#2636
b000100011 !
b000100011 "
b00011000 #
0$
#2641
1$
#2646
b000001101 !
b00001100 %
b000001101 "
b00000001 #
0$
#2651
1$
#2656
b000001110 !
b000001110 "
b00000010 #
0$
#2661
1$
#2666
b000001111 !
b000001111 "
b00000011 #
0$
#2671
1$
#2676
b000010000 !
b000010000 "
b00000100 #
0$
#2681
1$
#2686
b000010001 !
b000010001 "
b00000101 #
0$
#2691
1$
#2696
b000010010 !
b000010010 "
b00000110 #
0$
#2701
1$
#2706
b000010011 !
b000010011 "
b00000111 #
0$
#2711
1$
#2716
b000010100 !
b000010100 "
b00001000 #
0$
#2721
1$
#2726
b000010101 !
b000010101 "
b00001001 #
0$
#2731
1$
#2736
b000010110 !
b000010110 "
b00001010 #
0$
#2741
1$
#2746
b000010111 !
b000010111 "
b00001011 #
0$
#2751
1$
#2756
b000011000 !
b000011000 "
b00001100 #
0$
#2761
1$
#2766
b000011001 !
b000011001 "
b00001101 #
0$
#2771
1$
#2776
b000011010 !
b000011010 "
b00001110 #
0$
#2781
1$
#2786
b000011011 !
b000011011 "
b00001111 #
0$
#2791
1$
#2796
b000011100 !
b000011100 "
b00010000 #
0$
#2801
1$
#2806
b000011101 !
b000011101 "
b00010001 #
0$
#2811
1$
#2816
b000011110 !
b000011110 "
b00010010 #
0$
#2821
1$
#2826
b000011111 !
b000011111 "
b00010011 #
0$
#2831
1$
#2836
b000100000 !
b000100000 "
b00010100 #
0$
#2841
1$
#2846
b000100001 !
b000100001 "
b00010101 #
0$
#2851
1$
#2856
b000100010 !
b000100010 "
b00010110 #
0$
#2861
1$
#2866
b000100011 !
b000100011 "
b00010111 #
0$
#2871
1$
#2876
b000100100 !
b000100100 "
b00011000 #
0$
#2881
1$
#2886
b000001110 !
b00001101 %
b000001110 "
b00000001 #
0$
#2891
1$
#2896
b000001111 !
b000001111 "
b00000010 #
0$
#2901
1$
#2906
b000010000 !
b000010000 "
b00000011 #
0$
#2911
1$
#2916
b000010001 !
b000010001 "
b00000100 #
0$
#2921
1$
#2926
b000010010 !
b000010010 "
b00000101 #
0$
#2931
1$
#2936
b000010011 !
b000010011 "
b00000110 #
0$
#2941
1$
#2946
b000010100 !
b000010100 "
b00000111 #
0$
#2951
1$
#2956
b000010101 !
b000010101 "
b00001000 #
0$
#2961
1$
#2966
b000010110 !
b000010110 "
b00001001 #
0$
#2971
1$
#2976
b000010111 !
b000010111 "
b00001010 #
0$
#2981
1$
#2986
b000011000 !
b000011000 "
b00001011 #
0$
#2991
1$
#2996
b000011001 !
b000011001 "
b00001100 #
0$
#3001
1$
#3006
b000011010 !
b000011010 "
b00001101 #
0$
#3011
1$
#3016
b000011011 !
b000011011 "
b00001110 #
0$
#3021
1$
#3026
b000011100 !
b000011100 "
b00001111 #
0$
#3031
1$
#3036
b000011101 !
b000011101 "
b00010000 #
0$
#3041
1$
#3046
b000011110 !
b000011110 "
b00010001 #
0$
#3051
1$
#3056
b000011111 !
b000011111 "
b00010010 #
0$
#3061
1$
#3066
b000100000 !
b000100000 "
b00010011 #
0$
#3071
1$
#3076
b000100001 !
b000100001 "
b00010100 #
0$
#3081
1$
#3086
b000100010 !
b000100010 "
b00010101 #
0$
#3091
1$
#3096
b000100011 !
b000100011 "
b00010110 #
0$
#3101
1$
#3106
b000100100 !
b000100100 "
b00010111 #
0$
#3111
1$
#3116
b000100101 !
b000100101 "
b00011000 #
0$
#3121
1$
#3126
b000001111 !
b00001110 %
b000001111 "
b00000001 #
0$
#3131
1$
#3136
b000010000 !
b000010000 "
b00000010 #
0$
#3141
1$
#3146
b000010001 !
b000010001 "
b00000011 #
0$
#3151
1$
#3156
b000010010 !
b000010010 "
b00000100 #
0$
#3161
1$
#3166
b000010011 !
b000010011 "
b00000101 #
0$
#3171
1$
#3176
b000010100 !
b000010100 "
b00000110 #
0$
#3181
1$
#3186
b000010101 !
b000010101 "
b00000111 #
0$
#3191
1$
#3196
b000010110 !
b000010110 "
b00001000 #
0$
#3201
1$
#3206
b000010111 !
b000010111 "
b00001001 #
0$
#3211
1$
#3216
b000011000 !
b000011000 "
b00001010 #
0$
#3221
1$
#3226
b000011001 !
b000011001 "
b00001011 #
0$
#3231
1$
#3236
b000011010 !
b000011010 "
b00001100 #
0$
#3241
1$
#3246
b000011011 !
b000011011 "
b00001101 #
0$
#3251
1$
#3256
b000011100 !
b000011100 "
b00001110 #
0$
#3261
1$
#3266
b000011101 !
b000011101 "
b00001111 #
0$
#3271
1$
#3276
b000011110 !
b000011110 "
b00010000 #
0$
#3281
1$
#3286
b000011111 !
b000011111 "
b00010001 #
0$
#3291
1$
#3296
b000100000 !
b000100000 "
b00010010 #
0$
#3301
1$
#3306
b000100001 !
b000100001 "
b00010011 #
0$
#3311
1$
#3316
b000100010 !
b000100010 "
b00010100 #
0$
#3321
1$
#3326
b000100011 !
b000100011 "
b00010101 #
0$
#3331
1$
#3336
b000100100 !
b000100100 "
b00010110 #
0$
#3341
1$
#3346
b000100101 !
b000100101 "
b00010111 #
0$
#3351
1$
#3356
b000100110 !
b000100110 "
b00011000 #
0$
#3361
1$
#3366
b000010000 !
b00001111 %
b000010000 "
b00000001 #
0$
#3371
1$
#3376
b000010001 !
b000010001 "
b00000010 #
0$
#3381
1$
#3386
b000010010 !
b000010010 "
b00000011 #
0$
#3391
1$
#3396
b000010011 !
b000010011 "
b00000100 #
0$
#3401
1$
#3406
b000010100 !
b000010100 "
b00000101 #
0$
#3411
1$
#3416
b000010101 !
b000010101 "
b00000110 #
0$
#3421
1$
#3426
b000010110 !
b000010110 "
b00000111 #
0$
#3431
1$
#3436
b000010111 !
b000010111 "
b00001000 #
0$
#3441
1$
#3446
b000011000 !
b000011000 "
b00001001 #
0$
#3451
1$
#3456
b000011001 !
b000011001 "
b00001010 #
0$
#3461
1$
#3466
b000011010 !
b000011010 "
b00001011 #
0$
#3471
1$
#3476
b000011011 !
b000011011 "
b00001100 #
0$
#3481
1$
#3486
b000011100 !
b000011100 "
b00001101 #
0$
#3491
1$
#3496
b000011101 !
b000011101 "
b00001110 #
0$
#3501
1$
#3506
b000011110 !
b000011110 "
b00001111 #
0$
#3511
1$
#3516
b000011111 !
b000011111 "
b00010000 #
0$
#3521
1$
#3526
b000100000 !
b000100000 "
b00010001 #
0$
#3531
1$
#3536
b000100001 !
b000100001 "
b00010010 #
0$
#3541
1$
#3546
b000100010 !
b000100010 "
b00010011 #
0$
#3551
1$
#3556
b000100011 !
b000100011 "
b00010100 #
0$
#3561
1$
#3566
b000100100 !
b000100100 "
b00010101 #
0$
#3571
1$
#3576
b000100101 !
b000100101 "
b00010110 #
0$
#3581
1$
#3586
b000100110 !
b000100110 "
b00010111 #
0$
#3591
1$
#3596
b000100111 !
b000100111 "
b00011000 #
0$
#3601
1$
#3606
b000010001 !
b00010000 %
b000010001 "
b00000001 #
0$
#3611
1$
#3616
b000010010 !
b000010010 "
b00000010 #
0$
#3621
1$
#3626
b000010011 !
b000010011 "
b00000011 #
0$
#3631
1$
#3636
b000010100 !
b000010100 "
b00000100 #
0$
#3641
1$
#3646
b000010101 !
b000010101 "
b00000101 #
0$
#3651
1$
#3656
b000010110 !
b000010110 "
b00000110 #
0$
#3661
1$
#3666
b000010111 !
b000010111 "
b00000111 #
0$
#3671
1$
#3676
b000011000 !
b000011000 "
b00001000 #
0$
#3681
1$
#3686
b000011001 !
b000011001 "
b00001001 #
0$
#3691
1$
#3696
b000011010 !
b000011010 "
b00001010 #
0$
#3701
1$
#3706
b000011011 !
b000011011 "
b00001011 #
0$
#3711
1$
#3716
b000011100 !
b000011100 "
b00001100 #
0$
#3721
1$
#3726
b000011101 !
b000011101 "
b00001101 #
0$
#3731
1$
#3736
b000011110 !
b000011110 "
b00001110 #
0$
#3741
1$
#3746
b000011111 !
b000011111 "
b00001111 #
0$
#3751
1$
#3756
b000100000 !
b000100000 "
b00010000 #
0$
#3761
1$
#3766
b000100001 !
b000100001 "
b00010001 #
0$
#3771
1$
#3776
b000100010 !
b000100010 "
b00010010 #
0$
#3781
1$
#3786
b000100011 !
b000100011 "
b00010011 #
0$
#3791
1$
#3796
b000100100 !
b000100100 "
b00010100 #
0$
#3801
1$
#3806
b000100101 !
b000100101 "
b00010101 #
0$
#3811
1$
#3816
b000100110 !
b000100110 "
b00010110 #
0$
#3821
1$
#3826
b000100111 !
b000100111 "
b00010111 #
0$
#3831
1$
#3836
b000101000 !
b000101000 "
b00011000 #
0$
#3841
1$
#3846
b000010010 !
b00010001 %
b000010010 "
b00000001 #
0$
#3851
1$
#3856
b000010011 !
b000010011 "
b00000010 #
0$
#3861
1$
#3866
b000010100 !
b000010100 "
b00000011 #
0$
#3871
1$
#3876
b000010101 !
b000010101 "
b00000100 #
0$
#3881
1$
#3886
b000010110 !
b000010110 "
b00000101 #
0$
#3891
1$
#3896
b000010111 !
b000010111 "
b00000110 #
0$
#3901
1$
#3906
b000011000 !
b000011000 "
b00000111 #
0$
#3911
1$
#3916
b000011001 !
b000011001 "
b00001000 #
0$
#3921
1$
#3926
b000011010 !
b000011010 "
b00001001 #
0$
#3931
1$
#3936
b000011011 !
b000011011 "
b00001010 #
0$
#3941
1$
#3946
b000011100 !
b000011100 "
b00001011 #
0$
#3951
1$
#3956
b000011101 !
b000011101 "
b00001100 #
0$
#3961
1$
#3966
b000011110 !
b000011110 "
b00001101 #
0$
#3971
1$
#3976
b000011111 !
b000011111 "
b00001110 #
0$
#3981
1$
#3986
b000100000 !
b000100000 "
b00001111 #
0$
#3991
1$
#3996
b000100001 !
b000100001 "
b00010000 #
0$
#4001
1$
#4006
b000100010 !
b000100010 "
b00010001 #
0$
#4011
1$
#4016
b000100011 !
b000100011 "
b00010010 #
0$
#4021
1$
#4026
b000100100 !
b000100100 "
b00010011 #
0$
#4031
1$
#4036
b000100101 !
b000100101 "
b00010100 #
0$
#4041
1$
#4046
b000100110 !
b000100110 "
b00010101 #
0$
#4051
1$
#4056
b000100111 !
b000100111 "
b00010110 #
0$
#4061
1$
#4066
b000101000 !
b000101000 "
b00010111 #
0$
#4071
1$
#4076
b000101001 !
b000101001 "
b00011000 #
0$
#4081
1$
#4086
b000010011 !
b00010010 %
b000010011 "
b00000001 #
0$
#4091
1$
#4096
b000010100 !
b000010100 "
b00000010 #
0$
#4101
1$
#4106
b000010101 !
b000010101 "
b00000011 #
0$
#4111
1$
#4116
b000010110 !
b000010110 "
b00000100 #
0$
#4121
1$
#4126
b000010111 !
b000010111 "
b00000101 #
0$
#4131
1$
#4136
b000011000 !
b000011000 "
b00000110 #
0$
#4141
1$
#4146
b000011001 !
b000011001 "
b00000111 #
0$
#4151
1$
#4156
b000011010 !
b000011010 "
b00001000 #
0$
#4161
1$
#4166
b000011011 !
b000011011 "
b00001001 #
0$
#4171
1$
#4176
b000011100 !
b000011100 "
b00001010 #
0$
#4181
1$
#4186
b000011101 !
b000011101 "
b00001011 #
0$
#4191
1$
#4196
b000011110 !
b000011110 "
b00001100 #
0$
#4201
1$
#4206
b000011111 !
b000011111 "
b00001101 #
0$
#4211
1$
#4216
b000100000 !
b000100000 "
b00001110 #
0$
#4221
1$
#4226
b000100001 !
b000100001 "
b00001111 #
0$
#4231
1$
#4236
b000100010 !
b000100010 "
b00010000 #
0$
