samples/GCD.vcd
$date
2019-12-30T17:59+0000
$end
$version
0.2
$end
$comment

$end
$timescale 1ns  $end
$scope module GCD $end
 $var wire 1 ! io_e $end
 $var wire 16 " io_z $end
 $var wire 16 # io_b $end
 $var wire 16 $ _GEN_1 $end
 $var wire 16 % y $end
 $var wire 1 & clock $end
 $var wire 16 ' x $end
 $var wire 1 ( io_v $end
 $var wire 16 ) _GEN_0 $end
 $var wire 16 * io_a $end
 $var wire 1 + reset $end
$upscope $end
$enddefinitions $end
$dumpvars
b0000000000000000 '
b0000000000000000 $
0(
0&
b0000000000000000 %
b0000000000000000 )
0+
b0000000000000000 "
0!
b0000000000000000 #
b0000000000000000 *
$end
#0
1!
b0000000000111111 #
b0000000000100011 *
1(
#1
b0000000000111111 %
b0000000000100011 "
1&
b0000000000100011 '
b0000000000011100 $
0(
b0000000000100011 )
#6
0!
0&
#11
b0000000000011100 %
1&
b0000000000000111 )
#16
0&
#21
b0000000000000111 "
1&
b0000000000000111 '
b0000000000010101 $
#26
0&
#31
b0000000000010101 %
1&
b0000000000001110 $
#36
0&
#41
b0000000000001110 %
1&
b0000000000000111 $
#46
0&
#51
b0000000000000111 %
1&
b0000000000000000 $
#56
0&
#61
b0000000000000000 %
1&
1(
