samples/HasEnums.vcd
$date
2020-02-28T17:43+0000
$end
$version
0.2
$end
$comment

$end
$timescale 1ns  $end
$scope module HasEnums $end
 $var wire 1 ! advance $end
 $var wire 3 " stateReg $end
 $var wire 3 # _GEN_2 $end
 $var wire 25 $ _T $end
 $var wire 3 % currentState $end
 $var wire 24 ' _GEN_5 $end
 $var wire 1 ( _GEN_8 $end
 $var wire 1 ) getNextState $end
 $var wire 1 * _GEN_7 $end
 $var wire 1 - _GEN_1 $end
 $var wire 3 . _GEN_4 $end
 $var wire 1 / clock $end
 $var wire 24 1 cycles $end
 $var wire 3 2 _GEN_6 $end
 $var wire 3 3 _GEN_0 $end
 $var wire 3 5 nextEatee $end
 $var wire 1 6 reset $end
 $var wire 3 7 _GEN_3 $end
  $scope module getNextState $end
   $var wire 3 & _GEN_2 $end
   $var wire 3 + state $end
   $var wire 3 , _GEN_1 $end
   $var wire 3 0 _GEN_3 $end
   $var wire 3 4 nextState $end
  $upscope $end
$upscope $end
$enddefinitions $end
$dumpvars
b000 "
b000 #
b000000000000000000000000 '
b000 2
0-
b000 3
b000 +
b000 %
0/
b000 ,
06
0!
b000000000000000000000000 1
0(
b000 4
b000 .
0)
b000 &
b000 5
0*
b000 7
b000 0
b0000000000000000000000000 $
$end
#0
b001 4
b100 .
b100 #
16
b0000000000000000000000001 $
b100 7
#1
1/
#6
1!
b001 3
06
0/
#11
b010 3
b010 0
1-
b001 %
b001 "
b000000000000000000000001 1
b001 .
b010 4
b001 5
b0000000000000000000000010 $
b001 +
1(
1/
#16
0/
#21
b011 3
b010 %
b011 4
b010 .
b011 &
b010 5
b000000000000000000000001 '
b010 7
1/
b011 0
b010 "
b000000000000000000000010 1
b001 2
b0000000000000000000000011 $
b010 +
#26
0!
b010 3
0/
#31
b000000000000000000000011 1
b010 2
b000000000000000000000010 '
b0000000000000000000000100 $
1/
#36
0/
#41
b000000000000000000000100 1
b000000000000000000000011 '
b0000000000000000000000101 $
1/
#46
1!
b011 3
0/
#51
b100 3
b011 %
b100 4
b011 .
b100 &
b011 5
b000000000000000000000100 '
b011 7
1/
b100 0
b011 "
b000000000000000000000101 1
b011 #
b0000000000000000000000110 $
b011 +
b100 ,
#56
0/
#61
b000 3
b100 %
b000 4
b100 .
b000 &
b100 5
b000000000000000000000101 '
b100 7
1/
b000 0
b100 "
b000000000000000000000110 1
b100 #
b011 2
b0000000000000000000000111 $
b100 +
b000 ,
#66
0/
#71
b001 3
b000 %
b000 "
b000000000000000000000111 1
b001 4
b000 5
b100 2
b000000000000000000000110 '
b0000000000000000000001000 $
b000 +
1/
#76
0!
b000 3
0/
#81
b000000000000000000001000 1
b000 2
b000000000000000000000111 '
b0000000000000000000001001 $
1/
