samples/HasEnums.vcd
$date
2020-02-10T23:42+0000
$end
$version
0.2
$end
$comment

$end
$timescale 1ns  $end
$scope module HasEnums $end
 $var wire 1 ! advance $end
 $var wire 3 " stateReg $end
 $var wire 1 # _GEN_10 $end
 $var wire 3 $ _GEN_2 $end
 $var wire 25 % _T $end
 $var wire 3 & currentState $end
 $var wire 3 ' _GEN_5 $end
 $var wire 3 ( _GEN_8 $end
 $var wire 24 ) _GEN_7 $end
 $var wire 3 * _GEN_1 $end
 $var wire 3 + _GEN_4 $end
 $var wire 1 , clock $end
 $var wire 24 - cycles $end
 $var wire 1 . _GEN_6 $end
 $var wire 3 / _GEN_0 $end
 $var wire 1 0 _GEN_9 $end
 $var wire 1 1 reset $end
 $var wire 3 2 _GEN_3 $end
$upscope $end
$enddefinitions $end
$dumpvars
b000 "
b0000000000000000000000000 %
b000000000000000000000000 -
b000 2
b000 *
b000 $
0.
b000 +
0!
00
b000000000000000000000000 )
01
b000 &
0#
b000 '
b000 (
b000 /
0,
$end
#0
b0000000000000000000000001 %
11
b001 +
#1
1,
#6
1!
01
b001 '
0,
#11
b000000000000000000000001 -
b0000000000000000000000010 %
b001 "
1.
b001 &
1#
b010 2
b001 *
b010 '
b001 $
b010 +
b001 /
1,
#16
0,
#21
b000000000000000000000010 -
b0000000000000000000000011 %
b010 "
b010 &
b011 2
b010 *
b011 '
b011 $
b011 +
b001 (
b010 /
1,
b000000000000000000000001 )
#26
0!
b010 '
0,
#31
b000000000000000000000011 -
b0000000000000000000000100 %
b010 (
1,
b000000000000000000000010 )
#36
0,
#41
b000000000000000000000100 -
b0000000000000000000000101 %
1,
b000000000000000000000011 )
#46
1!
b011 '
0,
#51
b000000000000000000000101 -
b0000000000000000000000110 %
b011 "
b011 &
b100 2
b100 *
b100 '
b100 $
b100 +
b011 /
1,
b000000000000000000000100 )
#56
0,
#61
b000000000000000000000110 -
b0000000000000000000000111 %
b100 "
b100 &
b000 2
b000 *
b000 '
b000 $
b000 +
b011 (
b000 /
1,
b000000000000000000000101 )
#66
0,
#71
b000000000000000000000111 -
b0000000000000000000001000 %
b000 "
b000 &
b001 '
b001 +
b100 (
1,
b000000000000000000000110 )
#76
0!
b000 '
0,
#81
b000000000000000000001000 -
b0000000000000000000001001 %
b000 (
1,
b000000000000000000000111 )
